1, Adjustable Race, NO STYLE, $0.00
2, Bearing Ball, NO STYLE, $0.00
3, BB Ball Bearing, NO STYLE, $0.00
4, Headset Ball Bearings, NO STYLE, $0.00
316, Blade, NO STYLE, $0.00
317, LL Crankarm, NO STYLE, $0.00
318, ML Crankarm, NO STYLE, $0.00
319, HL Crankarm, NO STYLE, $0.00
320, Chainring Bolts, NO STYLE, $0.00
321, Chainring Nut, NO STYLE, $0.00
322, Chainring, NO STYLE, $0.00
323, Crown Race, NO STYLE, $0.00
324, Chain Stays, NO STYLE, $0.00
325, Decal 1, NO STYLE, $0.00
326, Decal 2, NO STYLE, $0.00
327, Down Tube, NO STYLE, $0.00
328, Mountain End Caps, NO STYLE, $0.00
329, Road End Caps, NO STYLE, $0.00
330, Touring End Caps, NO STYLE, $0.00
331, Fork End, NO STYLE, $0.00
332, Freewheel, NO STYLE, $0.00
341, Flat Washer 1, NO STYLE, $0.00
342, Flat Washer 6, NO STYLE, $0.00
343, Flat Washer 2, NO STYLE, $0.00
344, Flat Washer 9, NO STYLE, $0.00
345, Flat Washer 4, NO STYLE, $0.00
346, Flat Washer 3, NO STYLE, $0.00
347, Flat Washer 8, NO STYLE, $0.00
348, Flat Washer 5, NO STYLE, $0.00
349, Flat Washer 7, NO STYLE, $0.00
350, Fork Crown, NO STYLE, $0.00
351, Front Derailleur Cage, NO STYLE, $0.00
352, Front Derailleur Linkage, NO STYLE, $0.00
355, Guide Pulley, NO STYLE, $0.00
356, LL Grip Tape, NO STYLE, $0.00
357, ML Grip Tape, NO STYLE, $0.00
358, HL Grip Tape, NO STYLE, $0.00
359, Thin-Jam Hex Nut 9, NO STYLE, $0.00
360, Thin-Jam Hex Nut 10, NO STYLE, $0.00
361, Thin-Jam Hex Nut 1, NO STYLE, $0.00
362, Thin-Jam Hex Nut 2, NO STYLE, $0.00
363, Thin-Jam Hex Nut 15, NO STYLE, $0.00
364, Thin-Jam Hex Nut 16, NO STYLE, $0.00
365, Thin-Jam Hex Nut 5, NO STYLE, $0.00
366, Thin-Jam Hex Nut 6, NO STYLE, $0.00
367, Thin-Jam Hex Nut 3, NO STYLE, $0.00
368, Thin-Jam Hex Nut 4, NO STYLE, $0.00
369, Thin-Jam Hex Nut 13, NO STYLE, $0.00
370, Thin-Jam Hex Nut 14, NO STYLE, $0.00
371, Thin-Jam Hex Nut 7, NO STYLE, $0.00
372, Thin-Jam Hex Nut 8, NO STYLE, $0.00
373, Thin-Jam Hex Nut 12, NO STYLE, $0.00
374, Thin-Jam Hex Nut 11, NO STYLE, $0.00
375, Hex Nut 5, NO STYLE, $0.00
376, Hex Nut 6, NO STYLE, $0.00
377, Hex Nut 16, NO STYLE, $0.00
378, Hex Nut 17, NO STYLE, $0.00
379, Hex Nut 7, NO STYLE, $0.00
380, Hex Nut 8, NO STYLE, $0.00
381, Hex Nut 9, NO STYLE, $0.00
382, Hex Nut 22, NO STYLE, $0.00
383, Hex Nut 23, NO STYLE, $0.00
384, Hex Nut 12, NO STYLE, $0.00
385, Hex Nut 13, NO STYLE, $0.00
386, Hex Nut 1, NO STYLE, $0.00
387, Hex Nut 10, NO STYLE, $0.00
388, Hex Nut 11, NO STYLE, $0.00
389, Hex Nut 2, NO STYLE, $0.00
390, Hex Nut 20, NO STYLE, $0.00
391, Hex Nut 21, NO STYLE, $0.00
392, Hex Nut 3, NO STYLE, $0.00
393, Hex Nut 14, NO STYLE, $0.00
394, Hex Nut 15, NO STYLE, $0.00
395, Hex Nut 4, NO STYLE, $0.00
396, Hex Nut 18, NO STYLE, $0.00
397, Hex Nut 19, NO STYLE, $0.00
398, Handlebar Tube, NO STYLE, $0.00
399, Head Tube, NO STYLE, $0.00
400, LL Hub, NO STYLE, $0.00
401, HL Hub, NO STYLE, $0.00
402, Keyed Washer, NO STYLE, $0.00
403, External Lock Washer 3, NO STYLE, $0.00
404, External Lock Washer 4, NO STYLE, $0.00
405, External Lock Washer 9, NO STYLE, $0.00
406, External Lock Washer 5, NO STYLE, $0.00
407, External Lock Washer 7, NO STYLE, $0.00
408, External Lock Washer 6, NO STYLE, $0.00
409, External Lock Washer 1, NO STYLE, $0.00
410, External Lock Washer 8, NO STYLE, $0.00
411, External Lock Washer 2, NO STYLE, $0.00
412, Internal Lock Washer 3, NO STYLE, $0.00
413, Internal Lock Washer 4, NO STYLE, $0.00
414, Internal Lock Washer 9, NO STYLE, $0.00
415, Internal Lock Washer 5, NO STYLE, $0.00
416, Internal Lock Washer 7, NO STYLE, $0.00
417, Internal Lock Washer 6, NO STYLE, $0.00
418, Internal Lock Washer 10, NO STYLE, $0.00
419, Internal Lock Washer 1, NO STYLE, $0.00
420, Internal Lock Washer 8, NO STYLE, $0.00
421, Internal Lock Washer 2, NO STYLE, $0.00
422, Thin-Jam Lock Nut 9, NO STYLE, $0.00
423, Thin-Jam Lock Nut 10, NO STYLE, $0.00
424, Thin-Jam Lock Nut 1, NO STYLE, $0.00
425, Thin-Jam Lock Nut 2, NO STYLE, $0.00
426, Thin-Jam Lock Nut 15, NO STYLE, $0.00
427, Thin-Jam Lock Nut 16, NO STYLE, $0.00
428, Thin-Jam Lock Nut 5, NO STYLE, $0.00
429, Thin-Jam Lock Nut 6, NO STYLE, $0.00
430, Thin-Jam Lock Nut 3, NO STYLE, $0.00
431, Thin-Jam Lock Nut 4, NO STYLE, $0.00
432, Thin-Jam Lock Nut 13, NO STYLE, $0.00
433, Thin-Jam Lock Nut 14, NO STYLE, $0.00
434, Thin-Jam Lock Nut 7, NO STYLE, $0.00
435, Thin-Jam Lock Nut 8, NO STYLE, $0.00
436, Thin-Jam Lock Nut 12, NO STYLE, $0.00
437, Thin-Jam Lock Nut 11, NO STYLE, $0.00
438, Lock Nut 5, NO STYLE, $0.00
439, Lock Nut 6, NO STYLE, $0.00
440, Lock Nut 16, NO STYLE, $0.00
441, Lock Nut 17, NO STYLE, $0.00
442, Lock Nut 7, NO STYLE, $0.00
443, Lock Nut 8, NO STYLE, $0.00
444, Lock Nut 9, NO STYLE, $0.00
445, Lock Nut 22, NO STYLE, $0.00
446, Lock Nut 23, NO STYLE, $0.00
447, Lock Nut 12, NO STYLE, $0.00
448, Lock Nut 13, NO STYLE, $0.00
449, Lock Nut 1, NO STYLE, $0.00
450, Lock Nut 10, NO STYLE, $0.00
451, Lock Nut 11, NO STYLE, $0.00
452, Lock Nut 2, NO STYLE, $0.00
453, Lock Nut 20, NO STYLE, $0.00
454, Lock Nut 21, NO STYLE, $0.00
455, Lock Nut 3, NO STYLE, $0.00
456, Lock Nut 14, NO STYLE, $0.00
457, Lock Nut 15, NO STYLE, $0.00
458, Lock Nut 4, NO STYLE, $0.00
459, Lock Nut 19, NO STYLE, $0.00
460, Lock Nut 18, NO STYLE, $0.00
461, Lock Ring, NO STYLE, $0.00
462, Lower Head Race, NO STYLE, $0.00
463, Lock Washer 4, NO STYLE, $0.00
464, Lock Washer 5, NO STYLE, $0.00
465, Lock Washer 10, NO STYLE, $0.00
466, Lock Washer 6, NO STYLE, $0.00
467, Lock Washer 13, NO STYLE, $0.00
468, Lock Washer 8, NO STYLE, $0.00
469, Lock Washer 1, NO STYLE, $0.00
470, Lock Washer 7, NO STYLE, $0.00
471, Lock Washer 12, NO STYLE, $0.00
472, Lock Washer 2, NO STYLE, $0.00
473, Lock Washer 9, NO STYLE, $0.00
474, Lock Washer 3, NO STYLE, $0.00
475, Lock Washer 11, NO STYLE, $0.00
476, Metal Angle, NO STYLE, $0.00
477, Metal Bar 1, NO STYLE, $0.00
478, Metal Bar 2, NO STYLE, $0.00
479, Metal Plate 2, NO STYLE, $0.00
480, Metal Plate 1, NO STYLE, $0.00
481, Metal Plate 3, NO STYLE, $0.00
482, Metal Sheet 2, NO STYLE, $0.00
483, Metal Sheet 3, NO STYLE, $0.00
484, Metal Sheet 7, NO STYLE, $0.00
485, Metal Sheet 4, NO STYLE, $0.00
486, Metal Sheet 5, NO STYLE, $0.00
487, Metal Sheet 6, NO STYLE, $0.00
488, Metal Sheet 1, NO STYLE, $0.00
489, Metal Tread Plate, NO STYLE, $0.00
490, LL Nipple, NO STYLE, $0.00
491, HL Nipple, NO STYLE, $0.00
492, Paint - Black, NO STYLE, $0.00
493, Paint - Red, NO STYLE, $0.00
494, Paint - Silver, NO STYLE, $0.00
495, Paint - Blue, NO STYLE, $0.00
496, Paint - Yellow, NO STYLE, $0.00
497, Pinch Bolt, NO STYLE, $0.00
504, Cup-Shaped Race, NO STYLE, $0.00
505, Cone-Shaped Race, NO STYLE, $0.00
506, Reflector, NO STYLE, $0.00
507, LL Mountain Rim, NO STYLE, $0.00
508, ML Mountain Rim, NO STYLE, $0.00
509, HL Mountain Rim, NO STYLE, $0.00
510, LL Road Rim, NO STYLE, $0.00
511, ML Road Rim, NO STYLE, $0.00
512, HL Road Rim, NO STYLE, $0.00
513, Touring Rim, NO STYLE, $0.00
514, LL Mountain Seat Assembly, NO STYLE, $133.34
515, ML Mountain Seat Assembly, NO STYLE, $147.14
516, HL Mountain Seat Assembly, NO STYLE, $196.92
517, LL Road Seat Assembly, NO STYLE, $133.34
518, ML Road Seat Assembly, NO STYLE, $147.14
519, HL Road Seat Assembly, NO STYLE, $196.92
520, LL Touring Seat Assembly, NO STYLE, $133.34
521, ML Touring Seat Assembly, NO STYLE, $147.14
522, HL Touring Seat Assembly, NO STYLE, $196.92
523, LL Spindle/Axle, NO STYLE, $0.00
524, HL Spindle/Axle, NO STYLE, $0.00
525, LL Shell, NO STYLE, $0.00
526, HL Shell, NO STYLE, $0.00
527, Spokes, NO STYLE, $0.00
528, Seat Lug, NO STYLE, $0.00
529, Stem, NO STYLE, $0.00
530, Seat Post, NO STYLE, $0.00
531, Steerer, NO STYLE, $0.00
532, Seat Stays, NO STYLE, $0.00
533, Seat Tube, NO STYLE, $0.00
534, Top Tube, NO STYLE, $0.00
535, Tension Pulley, NO STYLE, $0.00
679, Rear Derailleur Cage, NO STYLE, $0.00
680, HL Road Frame - Black, 58, U , $1,431.50
706, HL Road Frame - Red, 58, U , $1,431.50
707, Sport-100 Helmet, Red, NO STYLE, $34.99
708, Sport-100 Helmet, Black, NO STYLE, $34.99
709, Mountain Bike Socks, M, U , $9.50
710, Mountain Bike Socks, L, U , $9.50
711, Sport-100 Helmet, Blue, NO STYLE, $34.99
712, AWC Logo Cap, U , $8.99
713, Long-Sleeve Logo Jersey, S, U , $49.99
714, Long-Sleeve Logo Jersey, M, U , $49.99
715, Long-Sleeve Logo Jersey, L, U , $49.99
716, Long-Sleeve Logo Jersey, XL, U , $49.99
717, HL Road Frame - Red, 62, U , $1,431.50
718, HL Road Frame - Red, 44, U , $1,431.50
719, HL Road Frame - Red, 48, U , $1,431.50
720, HL Road Frame - Red, 52, U , $1,431.50
721, HL Road Frame - Red, 56, U , $1,431.50
722, LL Road Frame - Black, 58, U , $337.22
723, LL Road Frame - Black, 60, U , $337.22
724, LL Road Frame - Black, 62, U , $337.22
725, LL Road Frame - Red, 44, U , $337.22
726, LL Road Frame - Red, 48, U , $337.22
727, LL Road Frame - Red, 52, U , $337.22
728, LL Road Frame - Red, 58, U , $337.22
729, LL Road Frame - Red, 60, U , $337.22
730, LL Road Frame - Red, 62, U , $337.22
731, ML Road Frame - Red, 44, U , $594.83
732, ML Road Frame - Red, 48, U , $594.83
733, ML Road Frame - Red, 52, U , $594.83
734, ML Road Frame - Red, 58, U , $594.83
735, ML Road Frame - Red, 60, U , $594.83
736, LL Road Frame - Black, 44, U , $337.22
737, LL Road Frame - Black, 48, U , $337.22
738, LL Road Frame - Black, 52, U , $337.22
739, HL Mountain Frame - Silver, 42, U , $1,364.50
740, HL Mountain Frame - Silver, 44, U , $1,364.50
741, HL Mountain Frame - Silver, 48, U , $1,364.50
742, HL Mountain Frame - Silver, 46, U , $1,364.50
743, HL Mountain Frame - Black, 42, U , $1,349.60
744, HL Mountain Frame - Black, 44, U , $1,349.60
745, HL Mountain Frame - Black, 48, U , $1,349.60
746, HL Mountain Frame - Black, 46, U , $1,349.60
747, HL Mountain Frame - Black, 38, U , $1,349.60
748, HL Mountain Frame - Silver, 38, U , $1,364.50
749, Road-150 Red, 62, U , $3,578.27
750, Road-150 Red, 44, U , $3,578.27
751, Road-150 Red, 48, U , $3,578.27
752, Road-150 Red, 52, U , $3,578.27
753, Road-150 Red, 56, U , $3,578.27
754, Road-450 Red, 58, U , $1,457.99
755, Road-450 Red, 60, U , $1,457.99
756, Road-450 Red, 44, U , $1,457.99
757, Road-450 Red, 48, U , $1,457.99
758, Road-450 Red, 52, U , $1,457.99
759, Road-650 Red, 58, U , $782.99
760, Road-650 Red, 60, U , $782.99
761, Road-650 Red, 62, U , $782.99
762, Road-650 Red, 44, U , $782.99
763, Road-650 Red, 48, U , $782.99
764, Road-650 Red, 52, U , $782.99
765, Road-650 Black, 58, U , $782.99
766, Road-650 Black, 60, U , $782.99
767, Road-650 Black, 62, U , $782.99
768, Road-650 Black, 44, U , $782.99
769, Road-650 Black, 48, U , $782.99
770, Road-650 Black, 52, U , $782.99
771, Mountain-100 Silver, 38, U , $3,399.99
772, Mountain-100 Silver, 42, U , $3,399.99
773, Mountain-100 Silver, 44, U , $3,399.99
774, Mountain-100 Silver, 48, U , $3,399.99
775, Mountain-100 Black, 38, U , $3,374.99
776, Mountain-100 Black, 42, U , $3,374.99
777, Mountain-100 Black, 44, U , $3,374.99
778, Mountain-100 Black, 48, U , $3,374.99
779, Mountain-200 Silver, 38, U , $2,319.99
780, Mountain-200 Silver, 42, U , $2,319.99
781, Mountain-200 Silver, 46, U , $2,319.99
782, Mountain-200 Black, 38, U , $2,294.99
783, Mountain-200 Black, 42, U , $2,294.99
784, Mountain-200 Black, 46, U , $2,294.99
785, Mountain-300 Black, 38, U , $1,079.99
786, Mountain-300 Black, 40, U , $1,079.99
787, Mountain-300 Black, 44, U , $1,079.99
788, Mountain-300 Black, 48, U , $1,079.99
789, Road-250 Red, 44, U , $2,443.35
790, Road-250 Red, 48, U , $2,443.35
791, Road-250 Red, 52, U , $2,443.35
792, Road-250 Red, 58, U , $2,443.35
793, Road-250 Black, 44, U , $2,443.35
794, Road-250 Black, 48, U , $2,443.35
795, Road-250 Black, 52, U , $2,443.35
796, Road-250 Black, 58, U , $2,443.35
797, Road-550-W Yellow, 38, W , $1,120.49
798, Road-550-W Yellow, 40, W , $1,120.49
799, Road-550-W Yellow, 42, W , $1,120.49
800, Road-550-W Yellow, 44, W , $1,120.49
801, Road-550-W Yellow, 48, W , $1,120.49
802, LL Fork, NO STYLE, $148.22
803, ML Fork, NO STYLE, $175.49
804, HL Fork, NO STYLE, $229.49
805, LL Headset, NO STYLE, $34.20
806, ML Headset, NO STYLE, $102.29
807, HL Headset, NO STYLE, $124.73
808, LL Mountain Handlebars, NO STYLE, $44.54
809, ML Mountain Handlebars, NO STYLE, $61.92
810, HL Mountain Handlebars, NO STYLE, $120.27
811, LL Road Handlebars, NO STYLE, $44.54
812, ML Road Handlebars, NO STYLE, $61.92
813, HL Road Handlebars, NO STYLE, $120.27
814, ML Mountain Frame - Black, 38, U , $348.76
815, LL Mountain Front Wheel, NO STYLE, $60.75
816, ML Mountain Front Wheel, NO STYLE, $209.03
817, HL Mountain Front Wheel, NO STYLE, $300.22
818, LL Road Front Wheel, NO STYLE, $85.57
819, ML Road Front Wheel, NO STYLE, $248.39
820, HL Road Front Wheel, NO STYLE, $330.06
821, Touring Front Wheel, NO STYLE, $218.01
822, ML Road Frame-W - Yellow, 38, W , $594.83
823, LL Mountain Rear Wheel, NO STYLE, $87.75
824, ML Mountain Rear Wheel, NO STYLE, $236.03
825, HL Mountain Rear Wheel, NO STYLE, $327.22
826, LL Road Rear Wheel, NO STYLE, $112.57
827, ML Road Rear Wheel, NO STYLE, $275.39
828, HL Road Rear Wheel, NO STYLE, $357.06
829, Touring Rear Wheel, NO STYLE, $245.01
830, ML Mountain Frame - Black, 40, U , $348.76
831, ML Mountain Frame - Black, 44, U , $348.76
832, ML Mountain Frame - Black, 48, U , $348.76
833, ML Road Frame-W - Yellow, 40, W , $594.83
834, ML Road Frame-W - Yellow, 42, W , $594.83
835, ML Road Frame-W - Yellow, 44, W , $594.83
836, ML Road Frame-W - Yellow, 48, W , $594.83
837, HL Road Frame - Black, 62, U , $1,431.50
838, HL Road Frame - Black, 44, U , $1,431.50
839, HL Road Frame - Black, 48, U , $1,431.50
840, HL Road Frame - Black, 52, U , $1,431.50
841, Men's Sports Shorts, S, M , $59.99
842, Touring-Panniers, Large, NO STYLE, $125.00
843, Cable Lock, NO STYLE, $25.00
844, Minipump, NO STYLE, $19.99
845, Mountain Pump, NO STYLE, $24.99
846, Taillights - Battery-Powered, NO STYLE, $13.99
847, Headlights - Dual-Beam, NO STYLE, $34.99
848, Headlights - Weatherproof, NO STYLE, $44.99
849, Men's Sports Shorts, M, M , $59.99
850, Men's Sports Shorts, L, M , $59.99
851, Men's Sports Shorts, XL, M , $59.99
852, Women's Tights, S, W , $74.99
853, Women's Tights, M, W , $74.99
854, Women's Tights, L, W , $74.99
855, Men's Bib-Shorts, S, M , $89.99
856, Men's Bib-Shorts, M, M , $89.99
857, Men's Bib-Shorts, L, M , $89.99
858, Half-Finger Gloves, S, U , $24.49
859, Half-Finger Gloves, M, U , $24.49
860, Half-Finger Gloves, L, U , $24.49
861, Full-Finger Gloves, S, U , $37.99
862, Full-Finger Gloves, M, U , $37.99
863, Full-Finger Gloves, L, U , $37.99
864, Classic Vest, S, U , $63.50
865, Classic Vest, M, U , $63.50
866, Classic Vest, L, U , $63.50
867, Women's Mountain Shorts, S, W , $69.99
868, Women's Mountain Shorts, M, W , $69.99
869, Women's Mountain Shorts, L, W , $69.99
870, Water Bottle - 30 oz., NO STYLE, $4.99
871, Mountain Bottle Cage, NO STYLE, $9.99
872, Road Bottle Cage, NO STYLE, $8.99
873, Patch Kit/8 Patches, NO STYLE, $2.29
874, Racing Socks, M, U , $8.99
875, Racing Socks, L, U , $8.99
876, Hitch Rack - 4-Bike, NO STYLE, $120.00
877, Bike Wash - Dissolver, NO STYLE, $7.95
878, Fender Set - Mountain, NO STYLE, $21.98
879, All-Purpose Bike Stand, NO STYLE, $159.00
880, Hydration Pack - 70 oz., NO STYLE, $54.99
881, Short-Sleeve Classic Jersey, S, U , $53.99
882, Short-Sleeve Classic Jersey, M, U , $53.99
883, Short-Sleeve Classic Jersey, L, U , $53.99
884, Short-Sleeve Classic Jersey, XL, U , $53.99
885, HL Touring Frame - Yellow, 60, U , $1,003.91
886, LL Touring Frame - Yellow, 62, U , $333.42
887, HL Touring Frame - Yellow, 46, U , $1,003.91
888, HL Touring Frame - Yellow, 50, U , $1,003.91
889, HL Touring Frame - Yellow, 54, U , $1,003.91
890, HL Touring Frame - Blue, 46, U , $1,003.91
891, HL Touring Frame - Blue, 50, U , $1,003.91
892, HL Touring Frame - Blue, 54, U , $1,003.91
893, HL Touring Frame - Blue, 60, U , $1,003.91
894, Rear Derailleur, NO STYLE, $121.46
895, LL Touring Frame - Blue, 50, U , $333.42
896, LL Touring Frame - Blue, 54, U , $333.42
897, LL Touring Frame - Blue, 58, U , $333.42
898, LL Touring Frame - Blue, 62, U , $333.42
899, LL Touring Frame - Yellow, 44, U , $333.42
900, LL Touring Frame - Yellow, 50, U , $333.42
901, LL Touring Frame - Yellow, 54, U , $333.42
902, LL Touring Frame - Yellow, 58, U , $333.42
903, LL Touring Frame - Blue, 44, U , $333.42
904, ML Mountain Frame-W - Silver, 40, W , $364.09
905, ML Mountain Frame-W - Silver, 42, W , $364.09
906, ML Mountain Frame-W - Silver, 46, W , $364.09
907, Rear Brakes, NO STYLE, $106.50
908, LL Mountain Seat/Saddle, NO STYLE, $27.12
909, ML Mountain Seat/Saddle, NO STYLE, $39.14
910, HL Mountain Seat/Saddle, NO STYLE, $52.64
911, LL Road Seat/Saddle, NO STYLE, $27.12
912, ML Road Seat/Saddle, NO STYLE, $39.14
913, HL Road Seat/Saddle, NO STYLE, $52.64
914, LL Touring Seat/Saddle, NO STYLE, $27.12
915, ML Touring Seat/Saddle, NO STYLE, $39.14
916, HL Touring Seat/Saddle, NO STYLE, $52.64
917, LL Mountain Frame - Silver, 42, U , $264.05
918, LL Mountain Frame - Silver, 44, U , $264.05
919, LL Mountain Frame - Silver, 48, U , $264.05
920, LL Mountain Frame - Silver, 52, U , $264.05
921, Mountain Tire Tube, NO STYLE, $4.99
922, Road Tire Tube, NO STYLE, $3.99
923, Touring Tire Tube, NO STYLE, $4.99
924, LL Mountain Frame - Black, 42, U , $249.79
925, LL Mountain Frame - Black, 44, U , $249.79
926, LL Mountain Frame - Black, 48, U , $249.79
927, LL Mountain Frame - Black, 52, U , $249.79
928, LL Mountain Tire, NO STYLE, $24.99
929, ML Mountain Tire, NO STYLE, $29.99
930, HL Mountain Tire, NO STYLE, $35.00
931, LL Road Tire, NO STYLE, $21.49
932, ML Road Tire, NO STYLE, $24.99
933, HL Road Tire, NO STYLE, $32.60
934, Touring Tire, NO STYLE, $28.99
935, LL Mountain Pedal, NO STYLE, $40.49
936, ML Mountain Pedal, NO STYLE, $62.09
937, HL Mountain Pedal, NO STYLE, $80.99
938, LL Road Pedal, NO STYLE, $40.49
939, ML Road Pedal, NO STYLE, $62.09
940, HL Road Pedal, NO STYLE, $80.99
941, Touring Pedal, NO STYLE, $80.99
942, ML Mountain Frame-W - Silver, 38, W , $364.09
943, LL Mountain Frame - Black, 40, U , $249.79
944, LL Mountain Frame - Silver, 40, U , $264.05
945, Front Derailleur, NO STYLE, $91.49
946, LL Touring Handlebars, NO STYLE, $46.09
947, HL Touring Handlebars, NO STYLE, $91.57
948, Front Brakes, NO STYLE, $106.50
949, LL Crankset, NO STYLE, $175.49
950, ML Crankset, NO STYLE, $256.49
951, HL Crankset, NO STYLE, $404.99
952, Chain, NO STYLE, $20.24
953, Touring-2000 Blue, 60, U , $1,214.85
954, Touring-1000 Yellow, 46, U , $2,384.07
955, Touring-1000 Yellow, 50, U , $2,384.07
956, Touring-1000 Yellow, 54, U , $2,384.07
957, Touring-1000 Yellow, 60, U , $2,384.07
958, Touring-3000 Blue, 54, U , $742.35
959, Touring-3000 Blue, 58, U , $742.35
960, Touring-3000 Blue, 62, U , $742.35
961, Touring-3000 Yellow, 44, U , $742.35
962, Touring-3000 Yellow, 50, U , $742.35
963, Touring-3000 Yellow, 54, U , $742.35
964, Touring-3000 Yellow, 58, U , $742.35
965, Touring-3000 Yellow, 62, U , $742.35
966, Touring-1000 Blue, 46, U , $2,384.07
967, Touring-1000 Blue, 50, U , $2,384.07
968, Touring-1000 Blue, 54, U , $2,384.07
969, Touring-1000 Blue, 60, U , $2,384.07
970, Touring-2000 Blue, 46, U , $1,214.85
971, Touring-2000 Blue, 50, U , $1,214.85
972, Touring-2000 Blue, 54, U , $1,214.85
973, Road-350-W Yellow, 40, W , $1,700.99
974, Road-350-W Yellow, 42, W , $1,700.99
975, Road-350-W Yellow, 44, W , $1,700.99
976, Road-350-W Yellow, 48, W , $1,700.99
977, Road-750 Black, 58, U , $539.99
978, Touring-3000 Blue, 44, U , $742.35
979, Touring-3000 Blue, 50, U , $742.35
980, Mountain-400-W Silver, 38, W , $769.49
981, Mountain-400-W Silver, 40, W , $769.49
982, Mountain-400-W Silver, 42, W , $769.49
983, Mountain-400-W Silver, 46, W , $769.49
984, Mountain-500 Silver, 40, U , $564.99
985, Mountain-500 Silver, 42, U , $564.99
986, Mountain-500 Silver, 44, U , $564.99
987, Mountain-500 Silver, 48, U , $564.99
988, Mountain-500 Silver, 52, U , $564.99
989, Mountain-500 Black, 40, U , $539.99
990, Mountain-500 Black, 42, U , $539.99
991, Mountain-500 Black, 44, U , $539.99
992, Mountain-500 Black, 48, U , $539.99
993, Mountain-500 Black, 52, U , $539.99
994, LL Bottom Bracket, NO STYLE, $53.99
995, ML Bottom Bracket, NO STYLE, $101.24
996, HL Bottom Bracket, NO STYLE, $121.49
997, Road-750 Black, 44, U , $539.99
998, Road-750 Black, 48, U , $539.99
999, Road-750 Black, 52, U , $539.99
